{
    "KPlugin": {
        "Description": "Find system settings and system information modules",
        "Description[ar]": "اعثر على معلومات النظام و إعداده",
        "Description[ast]": "Atopa la configuración del sistema ya los módulos d'información del sistema",
        "Description[az]": "Sistem ayarları və sistem məlumatı modullarını tapın",
        "Description[be]": "Пошук налад сістэмы і модуляў сістэмнай інфармацыі",
        "Description[bg]": "Намиране на модули за системни настройки и информация",
        "Description[ca@valencia]": "Busca dels mòduls de Configuració del sistema i d'informació del sistema",
        "Description[ca]": "Cerca dels mòduls de l'arranjament del sistema i d'informació del sistema",
        "Description[cs]": "Najít nastavení systému a moduly informací o systému",
        "Description[de]": "Module für Systemeinstellungen und -informationen finden",
        "Description[el]": "Εύρεση αρθρωμάτων ρυθμίσεων και πληροφοριών συστήματος",
        "Description[en_GB]": "Find system settings and system information modules",
        "Description[eo]": "Trovi sistemagordojn kaj sisteminformajn modulojn",
        "Description[es]": "Encontrar preferencias del sistema y módulos de información del sistema",
        "Description[et]": "Otsimine süsteemi seadistustes ja süsteemi teabemoodulites",
        "Description[eu]": "Aurkitu sistemaren ezarpen eta sistemaren informazio moduluak",
        "Description[fi]": "Etsi järjestelmän asetus- ja tieto-osioita",
        "Description[fr]": "Trouver des modules d'informations ou de configuration pour le système",
        "Description[gl]": "Atopa opcións e información módulos do sistema.",
        "Description[he]": "איתור מודולים של הגדרות ומידע מערכת",
        "Description[hi]": "तंत्र विन्यास और तंत्र जानकारी मॉड्यूल ढूंढें",
        "Description[hu]": "Rendszerbeállítások és rendszerinformációs modulok keresése",
        "Description[ia]": "Trova preferentias de systema e modulos de information de systema",
        "Description[id]": "Temukan modul-modul pengaturan sistem dan informasi sistem",
        "Description[is]": "Finndu kerfisstillingar og upplýsingaeiningar fyrir tölvuna",
        "Description[it]": "Trova informazioni sui moduli delle impostazioni e delle informazioni di sistema",
        "Description[ja]": "システム設定とシステム情報モジュールの検索",
        "Description[ka]": "იპოვნეთ სისტემის პარამეტრები და სისტემის საინფორმაციო მოდულები",
        "Description[ko]": "시스템 설정과 시스템 정보 모듈 검색",
        "Description[my]": "စစ်စတမ်ဆက်တင်များနှင့် စစ်စတမ်အချက်အလက်ဆိုင်ရာမော်ဂျူးများ ရှာသည်",
        "Description[nb]": "Finn systeminnstillinger og moduler for systeminformasjon",
        "Description[nl]": "Zoek naar systeeminstellingen en systeeminformatiemodules",
        "Description[nn]": "Finn systemoppsett og modular for systeminformasjon",
        "Description[pl]": "Znajduje ustawienia systemowe i moduły szczegółów systemu",
        "Description[pt]": "Procurar por módulos de configuração e informação do sistema",
        "Description[pt_BR]": "Encontre configurações do sistema e módulos de informações do sistema",
        "Description[ro]": "Găsiți configurări de sistem și module cu informații despre sistem",
        "Description[ru]": "Поиск модулей настройки параметров и сведений о системе",
        "Description[sa]": "सङ्गणकतन्त्रस्य समायोजना च सङ्गणकतन्त्रस्य ज्ञान विभागनि लभते",
        "Description[sk]": "Nájsť systémové nastavena a moduly systémových informácií",
        "Description[sl]": "Najdi nastavitve sistema in module informacij o sistemu",
        "Description[sv]": "Sök efter systeminställnings- och systeminformationsmoduler",
        "Description[ta]": "கணினி அமைப்புகளையும் கணினி விவர கூறுகளையும் தேடும்",
        "Description[tr]": "Sistem ayarlarını ve sistem bilgi modüllerini bulun",
        "Description[uk]": "Пошук модулів «Системних параметрів» і «Інформації про систему»",
        "Description[vi]": "Tìm các khối thiết lập hệ thống và thông tin hệ thống",
        "Description[x-test]": "xxFind system settings and system information modulesxx",
        "Description[zh_CN]": "查找系统设置和系统信息模块",
        "Description[zh_TW]": "搜尋系統設定與系統資訊模組",
        "EnabledByDefault": true,
        "Icon": "systemsettings",
        "Name": "System Settings",
        "Name[ar]": "إعدادات النّظام",
        "Name[ast]": "Configuración del sistema",
        "Name[az]": "Sistem ayarları",
        "Name[be]": "Налады сістэмы",
        "Name[bg]": "Системни настройки",
        "Name[ca@valencia]": "Configuració del sistema",
        "Name[ca]": "Arranjament del sistema",
        "Name[cs]": "Nastavení systému",
        "Name[de]": "Systemeinstellungen",
        "Name[el]": "Ρυθμίσεις συστήματος",
        "Name[en_GB]": "System Settings",
        "Name[eo]": "Sistema Agordo",
        "Name[es]": "Preferencias del sistema",
        "Name[et]": "Süsteemi seadistused",
        "Name[eu]": "Sistemaren ezarpenak",
        "Name[fi]": "Järjestelmäasetukset",
        "Name[fr]": "Configuration du système",
        "Name[gl]": "Configuración do sistema",
        "Name[he]": "הגדרות מערכת",
        "Name[hi]": "तंत्र विन्यास",
        "Name[hu]": "Rendszerbeállítások",
        "Name[ia]": "Preferentias de systema",
        "Name[id]": "System Settings",
        "Name[is]": "Kerfisstillingar",
        "Name[it]": "Impostazioni di sistema",
        "Name[ja]": "システム設定",
        "Name[ka]": "სისტემის მორგება",
        "Name[ko]": "시스템 설정",
        "Name[my]": "စစ်စတမ်ဆက်တင်များ",
        "Name[nb]": "Systeminnstillinger",
        "Name[nl]": "Systeeminstellingen",
        "Name[nn]": "System­oppsett",
        "Name[pl]": "Ustawienia systemowe",
        "Name[pt]": "Configuração do Sistema",
        "Name[pt_BR]": "Configurações do sistema",
        "Name[ro]": "Configurări de sistem",
        "Name[ru]": "Параметры системы",
        "Name[sa]": "सङ्गणकतन्त्रस्य समायोजनानि",
        "Name[sk]": "Systémové nastavenia",
        "Name[sl]": "Nastavitve sistema",
        "Name[sv]": "Systeminställningar",
        "Name[ta]": "கணினி அமைப்புகள்",
        "Name[tr]": "Sistem Ayarları",
        "Name[uk]": "Системні параметри",
        "Name[vi]": "Thiết lập hệ thống",
        "Name[x-test]": "xxSystem Settingsxx",
        "Name[zh_CN]": "系统设置",
        "Name[zh_TW]": "系統設定"
    }
}
